{
    "prepare_queue": {
        "installed": [],
        "uninstalled": []
    },
    "config_munge": {
        "files": {
            "config.xml": {
                "parents": {
                    "/*": [
                        {
                            "xml": "<feature name=\"GKHackerNewsApiPlugin\"><param name=\"ios-package\" value=\"GKHackerNewsApiPlugin\" /></feature>",
                            "count": 1
                        }
                    ]
                }
            }
        }
    },
    "installed_plugins": {
        "cordova-plugin-whitelist": {
            "PACKAGE_NAME": "com.ghengiskwan.kmccordovaapp"
        },
        "gk-plugin-gkhackernewsapi": {
            "PACKAGE_NAME": "com.ghengiskwan.kmccordovaapp"
        }
    },
    "dependent_plugins": {},
    "modules": [
        {
            "id": "gk-plugin-gkhackernewsapi.GKHackerNewsApi",
            "file": "plugins/gk-plugin-gkhackernewsapi/www/gkhackernewsapi.js",
            "pluginId": "gk-plugin-gkhackernewsapi",
            "clobbers": [
                "gk.hackernewsapi"
            ]
        }
    ],
    "plugin_metadata": {
        "cordova-plugin-whitelist": "1.3.1",
        "gk-plugin-gkhackernewsapi": "1.0.0"
    }
}